<mxfile host="app.diagrams.net" modified="2021-01-21T15:17:35.672Z" agent="5.0 (Windows NT 10.0; WOW64) AppleWebKit/537.36 (KHTML, like Gecko) Chrome/80.0.3987.87 Safari/537.36 SE 2.X MetaSr 1.0" etag="G2HkuUbMLPINPdxy2IzT" version="14.2.6" type="gitlab">
  <diagram id="C5RBs43oDa-KdzZeNtuy" name="Page-1">
    <mxGraphModel dx="1422" dy="747" grid="1" gridSize="10" guides="1" tooltips="1" connect="1" arrows="1" fold="1" page="1" pageScale="1" pageWidth="827" pageHeight="1169" math="0" shadow="0">
      <root>
        <mxCell id="WIyWlLk6GJQsqaUBKTNV-0" />
        <mxCell id="WIyWlLk6GJQsqaUBKTNV-1" parent="WIyWlLk6GJQsqaUBKTNV-0" />
        <mxCell id="bAtsrmnUaQCJHc9cICLa-1" value="" style="whiteSpace=wrap;html=1;aspect=fixed;fillColor=#99CCFF;" parent="WIyWlLk6GJQsqaUBKTNV-1" vertex="1">
          <mxGeometry x="160" y="220" width="560" height="560" as="geometry" />
        </mxCell>
        <mxCell id="S6W5n3cQdFkC2Ad4kk6L-0" value="&lt;font style=&quot;font-size: 18px&quot;&gt;Application Infinity&lt;/font&gt;" style="rounded=0;whiteSpace=wrap;html=1;fillColor=#99CCFF;" parent="WIyWlLk6GJQsqaUBKTNV-1" vertex="1">
          <mxGeometry x="160" y="800" width="560" height="80" as="geometry" />
        </mxCell>
        <mxCell id="S6W5n3cQdFkC2Ad4kk6L-1" value="&lt;font style=&quot;font-size: 18px&quot;&gt;HDFS&lt;/font&gt;" style="rounded=0;whiteSpace=wrap;html=1;fillColor=#97D077;" parent="WIyWlLk6GJQsqaUBKTNV-1" vertex="1">
          <mxGeometry x="167" y="545" width="70" height="80" as="geometry" />
        </mxCell>
        <mxCell id="S6W5n3cQdFkC2Ad4kk6L-2" value="&lt;font style=&quot;font-size: 18px&quot;&gt;KV查询组件（SKV/Redis）&lt;/font&gt;" style="rounded=0;whiteSpace=wrap;html=1;fillColor=#97D077;" parent="WIyWlLk6GJQsqaUBKTNV-1" vertex="1">
          <mxGeometry x="607" y="545" width="100" height="80" as="geometry" />
        </mxCell>
        <mxCell id="S6W5n3cQdFkC2Ad4kk6L-3" value="&lt;font style=&quot;font-size: 18px&quot;&gt;Kafka&lt;/font&gt;" style="rounded=0;whiteSpace=wrap;html=1;fillColor=#97D077;" parent="WIyWlLk6GJQsqaUBKTNV-1" vertex="1">
          <mxGeometry x="487" y="545" width="80" height="80" as="geometry" />
        </mxCell>
        <mxCell id="S6W5n3cQdFkC2Ad4kk6L-4" value="&lt;font style=&quot;font-size: 18px&quot;&gt;Kudu&lt;/font&gt;" style="rounded=0;whiteSpace=wrap;html=1;fillColor=#97D077;" parent="WIyWlLk6GJQsqaUBKTNV-1" vertex="1">
          <mxGeometry x="377" y="545" width="80" height="80" as="geometry" />
        </mxCell>
        <mxCell id="S6W5n3cQdFkC2Ad4kk6L-7" value="&lt;font style=&quot;font-size: 18px&quot;&gt;机器学习框架&lt;/font&gt;" style="rounded=0;whiteSpace=wrap;html=1;fillColor=#FFE599;" parent="WIyWlLk6GJQsqaUBKTNV-1" vertex="1">
          <mxGeometry x="180" y="450" width="130" height="70" as="geometry" />
        </mxCell>
        <mxCell id="bAtsrmnUaQCJHc9cICLa-2" value="&lt;font style=&quot;font-size: 18px&quot;&gt;Infinity Client&lt;/font&gt;" style="rounded=0;whiteSpace=wrap;html=1;fillColor=#99FFFF;" parent="WIyWlLk6GJQsqaUBKTNV-1" vertex="1">
          <mxGeometry x="167" y="680" width="546" height="80" as="geometry" />
        </mxCell>
        <mxCell id="bAtsrmnUaQCJHc9cICLa-3" value="&lt;font style=&quot;font-size: 18px&quot;&gt;Impala&lt;/font&gt;" style="rounded=0;whiteSpace=wrap;html=1;fillColor=#97D077;" parent="WIyWlLk6GJQsqaUBKTNV-1" vertex="1">
          <mxGeometry x="267" y="545" width="70" height="80" as="geometry" />
        </mxCell>
        <mxCell id="bAtsrmnUaQCJHc9cICLa-4" value="&lt;span style=&quot;font-size: 18px&quot;&gt;数据流&lt;/span&gt;" style="rounded=0;whiteSpace=wrap;html=1;fillColor=#FFE599;" parent="WIyWlLk6GJQsqaUBKTNV-1" vertex="1">
          <mxGeometry x="352" y="450" width="130" height="70" as="geometry" />
        </mxCell>
        <mxCell id="bAtsrmnUaQCJHc9cICLa-5" value="&lt;span style=&quot;font-size: 18px&quot;&gt;在线服务&lt;/span&gt;" style="rounded=0;whiteSpace=wrap;html=1;fillColor=#FFE599;" parent="WIyWlLk6GJQsqaUBKTNV-1" vertex="1">
          <mxGeometry x="180" y="350" width="130" height="70" as="geometry" />
        </mxCell>
        <mxCell id="bAtsrmnUaQCJHc9cICLa-6" value="&lt;font style=&quot;font-size: 18px&quot;&gt;SR Push Service&lt;/font&gt;" style="text;html=1;strokeColor=none;fillColor=none;align=center;verticalAlign=middle;whiteSpace=wrap;rounded=0;" parent="WIyWlLk6GJQsqaUBKTNV-1" vertex="1">
          <mxGeometry x="320" y="280" width="240" height="20" as="geometry" />
        </mxCell>
        <mxCell id="ssKcTFOjS6zZB46tP5Ho-0" value="&lt;span style=&quot;font-size: 18px&quot;&gt;向量查询引擎&lt;/span&gt;" style="rounded=0;whiteSpace=wrap;html=1;fillColor=#FFE599;" vertex="1" parent="WIyWlLk6GJQsqaUBKTNV-1">
          <mxGeometry x="349" y="350" width="131" height="70" as="geometry" />
        </mxCell>
        <mxCell id="ssKcTFOjS6zZB46tP5Ho-1" value="&lt;span style=&quot;font-size: 18px&quot;&gt;数据流调度框架&lt;/span&gt;" style="rounded=0;whiteSpace=wrap;html=1;fillColor=#FFE599;" vertex="1" parent="WIyWlLk6GJQsqaUBKTNV-1">
          <mxGeometry x="530" y="450" width="130" height="70" as="geometry" />
        </mxCell>
        <mxCell id="ssKcTFOjS6zZB46tP5Ho-2" value="&lt;span style=&quot;font-size: 18px&quot;&gt;规则控制引擎&lt;/span&gt;" style="rounded=0;whiteSpace=wrap;html=1;fillColor=#FFE599;" vertex="1" parent="WIyWlLk6GJQsqaUBKTNV-1">
          <mxGeometry x="530" y="350" width="131" height="70" as="geometry" />
        </mxCell>
      </root>
    </mxGraphModel>
  </diagram>
</mxfile>
